…
So, being a female scientist ($x_{fem}$) decreases the expected number of articles (**art**) by a factor of 0.7988403, holding other other variables constant.  

# Prediction

## Predicted log of count

The predicted log of articles for **art**


```r
augment(mod_1)
```

```
## # A tibble: 915 x 13
##      art fem   mar    kid5   phd  ment .fitted .se.fit .resid    .hat .sigma
##    <dbl> <fct> <fct> <dbl> <dbl> <dbl>   <dbl>   <dbl>  <dbl>   <dbl>  <dbl>
##  1     0 Men   Marr~     0  2.52     7  0.671   0.0495  -1.98 0.00480   1.34
##  2     0 Women Sing~     0  2.05     6  0.260   0.0600  -1.61 0.00467   1.34
##  3     0 Women Sing~     0  3.75     6  0.281   0.0535  -1.63 0.00379   1.34
##  4     0 Men   Marr~     1  1.18     3  0.367   0.0636  -1.70 0.00584   1.34
##  5     0 Women Sing~     0  3.75    26  0.792   0.0601  -2.10 0.00799   1.34
##  6     0 Women Marr~     2  3.59     2 -0.0374  0.0814  -1.39 0.00639   1.34
##  7     0 Women Sing~     0  3.19     3  0.198   0.0527  -1.56 0.00339   1.34
##  8     0 Men   Marr~     2  2.96     4  0.230   0.0653  -1.59 0.00536   1.34
##  9     0 Men   Sing~     0  4.62     6  0.517   0.0665  -1.83 0.00741   1.34
## 10     0 Women Marr~     0  1.25     0  0.251   0.0692  -1.60 0.00615   1.34
## # ... with 905 more rows, and 2 more variables: .cooksd <dbl>, .std.resid <dbl>
```
…
